3-1==1.0.0
Django==1.10.3
Fabric==1.13.1
Pillow==2.9.0
PyPDF2==1.24
South==1.0.2
argparse==1.2.1
django-debug-toolbar==1.3.2
django-extensions==1.7.4
django-floppyforms==1.7.0
django-formset-js==0.5.0
django-formtools==1.0
django-geojson==2.9.0
django-grappelli==2.8.2
django-jquery-js==2.1.4
django-leaflet==0.18.1
django-longerusernameandemail==0.5.7
django-municipios==0.8.1
django-tastypie==0.12.2
ecdsa==0.13
geopy==1.11.0
html5lib==0.999999
paramiko==1.18.1
psycopg2==2.6.1
pyasn1==0.1.9
pycrypto==2.6.1
pydot==1.1.0
pydotplus==2.0.2
pygeocoder==1.2.5
pyparsing==1.5.7
python-dateutil==2.4.2
python-mimeparse==0.1.4
reportlab==3.2.0
requests==2.7.0
simplejson==3.8.0
six==1.10.0
sqlparse==0.1.15
vectorformats==0.1
wsgiref==0.1.2
xhtml2pdf==0.0.6
znc-django-deploy==0.0.17
